{
    "name": "InputMaster",
    "maps": [
        {
            "name": "Player",
            "id": "c4dfe1a9-a3a1-429b-9e1a-7b88bbf28692",
            "actions": [
                {
                    "name": "Jump",
                    "type": "Value",
                    "id": "3fa086bf-fb21-4286-9422-4d1d871429d8",
                    "expectedControlType": "",
                    "processors": "",
                    "interactions": ""
                },
                {
                    "name": "Yellow",
                    "type": "Value",
                    "id": "0dafa2f3-8d87-4176-a6d5-ab9347ffaa1a",
                    "expectedControlType": "",
                    "processors": "",
                    "interactions": ""
                },
                {
                    "name": "Red",
                    "type": "Value",
                    "id": "08daea33-adff-4532-8334-5b0ebee60451",
                    "expectedControlType": "Button",
                    "processors": "",
                    "interactions": ""
                },
                {
                    "name": "Green",
                    "type": "Value",
                    "id": "48fd3e3a-9420-4db0-8fa1-16bf05f184f2",
                    "expectedControlType": "",
                    "processors": "",
                    "interactions": ""
                },
                {
                    "name": "Blue",
                    "type": "Value",
                    "id": "c3da2aa5-f9e8-49e8-bd7f-f75704d689bb",
                    "expectedControlType": "",
                    "processors": "",
                    "interactions": ""
                },
                {
                    "name": "Quit",
                    "type": "Button",
                    "id": "cee6f03c-d929-42fb-a87a-bd0387e469b0",
                    "expectedControlType": "Button",
                    "processors": "",
                    "interactions": ""
                }
            ],
            "bindings": [
                {
                    "name": "",
                    "id": "6d04e2ff-c14c-4bd5-b6bb-bea5b9055fc1",
                    "path": "<Keyboard>/space",
                    "interactions": "",
                    "processors": "",
                    "groups": "",
                    "action": "Jump",
                    "isComposite": false,
                    "isPartOfComposite": false
                },
                {
                    "name": "",
                    "id": "ccff8770-6369-4223-b7c5-7e452414728e",
                    "path": "<Mouse>/leftButton",
                    "interactions": "",
                    "processors": "",
                    "groups": "Keyboard",
                    "action": "Jump",
                    "isComposite": false,
                    "isPartOfComposite": false
                },
                {
                    "name": "",
                    "id": "d08fb4b8-8381-4bcd-b456-c3978bd4c435",
                    "path": "<Gamepad>/dpad/up",
                    "interactions": "",
                    "processors": "",
                    "groups": "Gamepad Left",
                    "action": "Jump",
                    "isComposite": false,
                    "isPartOfComposite": false
                },
                {
                    "name": "",
                    "id": "f5d99930-f827-44bd-9db6-346b507e29a4",
                    "path": "<Gamepad>/leftStick/up",
                    "interactions": "",
                    "processors": "",
                    "groups": "Gamepad Left",
                    "action": "Jump",
                    "isComposite": false,
                    "isPartOfComposite": false
                },
                {
                    "name": "",
                    "id": "3a4cf278-1890-4020-ab7c-a0eb9cf2cc71",
                    "path": "<Gamepad>/buttonSouth",
                    "interactions": "",
                    "processors": "",
                    "groups": "Gamepad Right",
                    "action": "Jump",
                    "isComposite": false,
                    "isPartOfComposite": false
                },
                {
                    "name": "",
                    "id": "3ee3c03d-b900-42c3-bf2d-578477f80ae4",
                    "path": "<Gamepad>/buttonEast",
                    "interactions": "",
                    "processors": "",
                    "groups": "Gamepad Right",
                    "action": "Jump",
                    "isComposite": false,
                    "isPartOfComposite": false
                },
                {
                    "name": "",
                    "id": "387d5bce-2b54-4a16-bdd4-7774e88dc862",
                    "path": "<Gamepad>/buttonNorth",
                    "interactions": "",
                    "processors": "",
                    "groups": "Gamepad Right",
                    "action": "Jump",
                    "isComposite": false,
                    "isPartOfComposite": false
                },
                {
                    "name": "",
                    "id": "847f4dfa-a2a5-4343-b725-57978da7e237",
                    "path": "<Gamepad>/buttonWest",
                    "interactions": "",
                    "processors": "",
                    "groups": "Gamepad Right",
                    "action": "Jump",
                    "isComposite": false,
                    "isPartOfComposite": false
                },
                {
                    "name": "",
                    "id": "b9a5b67e-5de8-4f2a-9d7b-ff61fc05fa73",
                    "path": "<Gamepad>/rightStick/up",
                    "interactions": "",
                    "processors": "",
                    "groups": "Gamepad Right",
                    "action": "Jump",
                    "isComposite": false,
                    "isPartOfComposite": false
                },
                {
                    "name": "",
                    "id": "7e8b1aa7-f788-46d4-838e-308760c42c39",
                    "path": "<Gamepad>/rightTrigger",
                    "interactions": "",
                    "processors": "",
                    "groups": "Gamepad Right",
                    "action": "Jump",
                    "isComposite": false,
                    "isPartOfComposite": false
                },
                {
                    "name": "",
                    "id": "b8ed0f66-bf22-413e-b407-1c7874a8effa",
                    "path": "<Gamepad>/leftTrigger",
                    "interactions": "",
                    "processors": "",
                    "groups": "Gamepad Left",
                    "action": "Jump",
                    "isComposite": false,
                    "isPartOfComposite": false
                },
                {
                    "name": "",
                    "id": "3fc938eb-1590-45af-957f-0171b149a3d6",
                    "path": "<Gamepad>/buttonNorth",
                    "interactions": "",
                    "processors": "",
                    "groups": "Gamepad Left",
                    "action": "Yellow",
                    "isComposite": false,
                    "isPartOfComposite": false
                },
                {
                    "name": "",
                    "id": "2ddace99-9fe1-4646-91cf-3010b0e87ea3",
                    "path": "<Gamepad>/rightStick/up",
                    "interactions": "",
                    "processors": "",
                    "groups": "Gamepad Left",
                    "action": "Yellow",
                    "isComposite": false,
                    "isPartOfComposite": false
                },
                {
                    "name": "",
                    "id": "8cc0d88a-8bde-476c-8e15-f7dff570ec16",
                    "path": "<Keyboard>/r",
                    "interactions": "",
                    "processors": "",
                    "groups": "",
                    "action": "Yellow",
                    "isComposite": false,
                    "isPartOfComposite": false
                },
                {
                    "name": "",
                    "id": "709ed983-35ca-4564-b328-f4c259cca42f",
                    "path": "<Gamepad>/dpad/up",
                    "interactions": "",
                    "processors": "",
                    "groups": "Gamepad Right",
                    "action": "Yellow",
                    "isComposite": false,
                    "isPartOfComposite": false
                },
                {
                    "name": "",
                    "id": "e9906375-233f-44e7-9965-ccda206ee9dc",
                    "path": "<Gamepad>/buttonEast",
                    "interactions": "",
                    "processors": "",
                    "groups": "Gamepad Left",
                    "action": "Red",
                    "isComposite": false,
                    "isPartOfComposite": false
                },
                {
                    "name": "",
                    "id": "28cd6e40-628c-432f-a22f-a00842317f01",
                    "path": "<Gamepad>/rightStick/down",
                    "interactions": "",
                    "processors": "",
                    "groups": "Gamepad Left",
                    "action": "Red",
                    "isComposite": false,
                    "isPartOfComposite": false
                },
                {
                    "name": "",
                    "id": "b90f55ab-49c6-48b1-a810-325052c8a263",
                    "path": "<Keyboard>/q",
                    "interactions": "",
                    "processors": "",
                    "groups": "",
                    "action": "Red",
                    "isComposite": false,
                    "isPartOfComposite": false
                },
                {
                    "name": "",
                    "id": "61668c08-e504-4013-9025-be1bb2776db1",
                    "path": "<Gamepad>/dpad/right",
                    "interactions": "",
                    "processors": "",
                    "groups": "Gamepad Right",
                    "action": "Red",
                    "isComposite": false,
                    "isPartOfComposite": false
                },
                {
                    "name": "",
                    "id": "219c371e-b6e3-4bbe-8ebc-dcb4f914c4e7",
                    "path": "<Gamepad>/buttonSouth",
                    "interactions": "",
                    "processors": "",
                    "groups": "Gamepad Left",
                    "action": "Green",
                    "isComposite": false,
                    "isPartOfComposite": false
                },
                {
                    "name": "",
                    "id": "dadae3c2-6224-436d-bbc1-c21e2048a35d",
                    "path": "<Gamepad>/rightStick/right",
                    "interactions": "",
                    "processors": "",
                    "groups": "Gamepad Left",
                    "action": "Green",
                    "isComposite": false,
                    "isPartOfComposite": false
                },
                {
                    "name": "",
                    "id": "07c93a65-942b-4aec-ab04-623613b0d572",
                    "path": "<Keyboard>/w",
                    "interactions": "",
                    "processors": "",
                    "groups": "Keyboard",
                    "action": "Green",
                    "isComposite": false,
                    "isPartOfComposite": false
                },
                {
                    "name": "",
                    "id": "9c6a98b9-65f8-4dd6-962a-0346ad49fe33",
                    "path": "<Gamepad>/dpad/down",
                    "interactions": "",
                    "processors": "",
                    "groups": "Gamepad Right",
                    "action": "Green",
                    "isComposite": false,
                    "isPartOfComposite": false
                },
                {
                    "name": "",
                    "id": "ed92473f-3db8-4ceb-8812-06423f8a5567",
                    "path": "<Gamepad>/buttonWest",
                    "interactions": "",
                    "processors": "",
                    "groups": "Gamepad Left",
                    "action": "Blue",
                    "isComposite": false,
                    "isPartOfComposite": false
                },
                {
                    "name": "",
                    "id": "ceec4580-882d-48c8-a51c-cd11b8790cbe",
                    "path": "<Gamepad>/rightStick/left",
                    "interactions": "",
                    "processors": "",
                    "groups": "Gamepad Left",
                    "action": "Blue",
                    "isComposite": false,
                    "isPartOfComposite": false
                },
                {
                    "name": "",
                    "id": "127dbc5f-3abc-4574-a903-ec17b4c1659c",
                    "path": "<Keyboard>/e",
                    "interactions": "",
                    "processors": "",
                    "groups": "Keyboard",
                    "action": "Blue",
                    "isComposite": false,
                    "isPartOfComposite": false
                },
                {
                    "name": "",
                    "id": "4a43dffb-4c53-44c5-940b-ba0ba1035b74",
                    "path": "<Gamepad>/dpad/left",
                    "interactions": "",
                    "processors": "",
                    "groups": "Gamepad Right",
                    "action": "Blue",
                    "isComposite": false,
                    "isPartOfComposite": false
                },
                {
                    "name": "",
                    "id": "a7dfa48c-9afb-4f09-851a-0c9aa6f89bed",
                    "path": "<Keyboard>/escape",
                    "interactions": "",
                    "processors": "",
                    "groups": "Keyboard;Gamepad Left;Gamepad Right",
                    "action": "Quit",
                    "isComposite": false,
                    "isPartOfComposite": false
                },
                {
                    "name": "",
                    "id": "69758290-23d2-4dd2-bb75-efd95f1ab934",
                    "path": "<Gamepad>/start",
                    "interactions": "",
                    "processors": "",
                    "groups": "Gamepad Left;Gamepad Right",
                    "action": "Quit",
                    "isComposite": false,
                    "isPartOfComposite": false
                }
            ]
        }
    ],
    "controlSchemes": [
        {
            "name": "Keyboard",
            "bindingGroup": "Keyboard",
            "devices": [
                {
                    "devicePath": "<Keyboard>",
                    "isOptional": false,
                    "isOR": false
                },
                {
                    "devicePath": "<Mouse>",
                    "isOptional": true,
                    "isOR": false
                }
            ]
        },
        {
            "name": "Gamepad Left",
            "bindingGroup": "Gamepad Left",
            "devices": [
                {
                    "devicePath": "<Gamepad>",
                    "isOptional": false,
                    "isOR": false
                }
            ]
        },
        {
            "name": "Gamepad Right",
            "bindingGroup": "Gamepad Right",
            "devices": [
                {
                    "devicePath": "<Gamepad>",
                    "isOptional": false,
                    "isOR": false
                }
            ]
        }
    ]
}